%YAML 1.1
%TAG !u! tag:unity3d.com,2011:
--- !u!1 &3874237924094853825
GameObject:
  m_ObjectHideFlags: 0
  m_CorrespondingSourceObject: {fileID: 0}
  m_PrefabInstance: {fileID: 0}
  m_PrefabAsset: {fileID: 0}
  serializedVersion: 6
  m_Component:
  - component: {fileID: 273747347691911357}
  - component: {fileID: 4379444606693455801}
  - component: {fileID: 8647937160516951786}
  m_Layer: 0
  m_Name: Layer1
  m_TagString: Untagged
  m_Icon: {fileID: 0}
  m_NavMeshLayer: 0
  m_StaticEditorFlags: 0
  m_IsActive: 1
--- !u!4 &273747347691911357
Transform:
  m_ObjectHideFlags: 0
  m_CorrespondingSourceObject: {fileID: 0}
  m_PrefabInstance: {fileID: 0}
  m_PrefabAsset: {fileID: 0}
  m_GameObject: {fileID: 3874237924094853825}
  m_LocalRotation: {x: -0, y: -0, z: -0, w: 1}
  m_LocalPosition: {x: 0, y: 0, z: 0}
  m_LocalScale: {x: 1, y: 1, z: 1}
  m_Children: []
  m_Father: {fileID: 10648974948151187}
  m_RootOrder: 0
  m_LocalEulerAnglesHint: {x: 0, y: 0, z: 0}
--- !u!1839735485 &4379444606693455801
Tilemap:
  m_ObjectHideFlags: 0
  m_CorrespondingSourceObject: {fileID: 0}
  m_PrefabInstance: {fileID: 0}
  m_PrefabAsset: {fileID: 0}
  m_GameObject: {fileID: 3874237924094853825}
  m_Enabled: 1
  m_Tiles:
  - first: {x: -1, y: -3, z: 0}
    second:
      serializedVersion: 2
      m_TileIndex: 20
      m_TileSpriteIndex: 20
      m_TileMatrixIndex: 0
      m_TileColorIndex: 0
      m_TileObjectToInstantiateIndex: 65535
      dummyAlignment: 0
      m_AllTileFlags: 1073741825
  - first: {x: 0, y: -3, z: 0}
    second:
      serializedVersion: 2
      m_TileIndex: 21
      m_TileSpriteIndex: 21
      m_TileMatrixIndex: 0
      m_TileColorIndex: 0
      m_TileObjectToInstantiateIndex: 65535
      dummyAlignment: 0
      m_AllTileFlags: 1073741825
  - first: {x: 1, y: -3, z: 0}
    second:
      serializedVersion: 2
      m_TileIndex: 22
      m_TileSpriteIndex: 22
      m_TileMatrixIndex: 0
      m_TileColorIndex: 0
      m_TileObjectToInstantiateIndex: 65535
      dummyAlignment: 0
      m_AllTileFlags: 1073741825
  - first: {x: -1, y: -2, z: 0}
    second:
      serializedVersion: 2
      m_TileIndex: 15
      m_TileSpriteIndex: 15
      m_TileMatrixIndex: 0
      m_TileColorIndex: 0
      m_TileObjectToInstantiateIndex: 65535
      dummyAlignment: 0
      m_AllTileFlags: 1073741825
  - first: {x: 0, y: -2, z: 0}
    second:
      serializedVersion: 2
      m_TileIndex: 16
      m_TileSpriteIndex: 16
      m_TileMatrixIndex: 0
      m_TileColorIndex: 0
      m_TileObjectToInstantiateIndex: 65535
      dummyAlignment: 0
      m_AllTileFlags: 1073741825
  - first: {x: 1, y: -2, z: 0}
    second:
      serializedVersion: 2
      m_TileIndex: 17
      m_TileSpriteIndex: 17
      m_TileMatrixIndex: 0
      m_TileColorIndex: 0
      m_TileObjectToInstantiateIndex: 65535
      dummyAlignment: 0
      m_AllTileFlags: 1073741825
  - first: {x: 2, y: -2, z: 0}
    second:
      serializedVersion: 2
      m_TileIndex: 18
      m_TileSpriteIndex: 18
      m_TileMatrixIndex: 0
      m_TileColorIndex: 0
      m_TileObjectToInstantiateIndex: 65535
      dummyAlignment: 0
      m_AllTileFlags: 1073741825
  - first: {x: 3, y: -2, z: 0}
    second:
      serializedVersion: 2
      m_TileIndex: 19
      m_TileSpriteIndex: 19
      m_TileMatrixIndex: 0
      m_TileColorIndex: 0
      m_TileObjectToInstantiateIndex: 65535
      dummyAlignment: 0
      m_AllTileFlags: 1073741825
  - first: {x: -1, y: -1, z: 0}
    second:
      serializedVersion: 2
      m_TileIndex: 10
      m_TileSpriteIndex: 10
      m_TileMatrixIndex: 0
      m_TileColorIndex: 0
      m_TileObjectToInstantiateIndex: 65535
      dummyAlignment: 0
      m_AllTileFlags: 1073741825
  - first: {x: 0, y: -1, z: 0}
    second:
      serializedVersion: 2
      m_TileIndex: 11
      m_TileSpriteIndex: 11
      m_TileMatrixIndex: 0
      m_TileColorIndex: 0
      m_TileObjectToInstantiateIndex: 65535
      dummyAlignment: 0
      m_AllTileFlags: 1073741825
  - first: {x: 1, y: -1, z: 0}
    second:
      serializedVersion: 2
      m_TileIndex: 12
      m_TileSpriteIndex: 12
      m_TileMatrixIndex: 0
      m_TileColorIndex: 0
      m_TileObjectToInstantiateIndex: 65535
      dummyAlignment: 0
      m_AllTileFlags: 1073741825
  - first: {x: 2, y: -1, z: 0}
    second:
      serializedVersion: 2
      m_TileIndex: 13
      m_TileSpriteIndex: 13
      m_TileMatrixIndex: 0
      m_TileColorIndex: 0
      m_TileObjectToInstantiateIndex: 65535
      dummyAlignment: 0
      m_AllTileFlags: 1073741825
  - first: {x: 3, y: -1, z: 0}
    second:
      serializedVersion: 2
      m_TileIndex: 14
      m_TileSpriteIndex: 14
      m_TileMatrixIndex: 0
      m_TileColorIndex: 0
      m_TileObjectToInstantiateIndex: 65535
      dummyAlignment: 0
      m_AllTileFlags: 1073741825
  - first: {x: -1, y: 0, z: 0}
    second:
      serializedVersion: 2
      m_TileIndex: 5
      m_TileSpriteIndex: 5
      m_TileMatrixIndex: 0
      m_TileColorIndex: 0
      m_TileObjectToInstantiateIndex: 65535
      dummyAlignment: 0
      m_AllTileFlags: 1073741825
  - first: {x: 0, y: 0, z: 0}
    second:
      serializedVersion: 2
      m_TileIndex: 6
      m_TileSpriteIndex: 6
      m_TileMatrixIndex: 0
      m_TileColorIndex: 0
      m_TileObjectToInstantiateIndex: 65535
      dummyAlignment: 0
      m_AllTileFlags: 1073741825
  - first: {x: 1, y: 0, z: 0}
    second:
      serializedVersion: 2
      m_TileIndex: 7
      m_TileSpriteIndex: 7
      m_TileMatrixIndex: 0
      m_TileColorIndex: 0
      m_TileObjectToInstantiateIndex: 65535
      dummyAlignment: 0
      m_AllTileFlags: 1073741825
  - first: {x: 2, y: 0, z: 0}
    second:
      serializedVersion: 2
      m_TileIndex: 8
      m_TileSpriteIndex: 8
      m_TileMatrixIndex: 0
      m_TileColorIndex: 0
      m_TileObjectToInstantiateIndex: 65535
      dummyAlignment: 0
      m_AllTileFlags: 1073741825
  - first: {x: 3, y: 0, z: 0}
    second:
      serializedVersion: 2
      m_TileIndex: 9
      m_TileSpriteIndex: 9
      m_TileMatrixIndex: 0
      m_TileColorIndex: 0
      m_TileObjectToInstantiateIndex: 65535
      dummyAlignment: 0
      m_AllTileFlags: 1073741825
  - first: {x: -1, y: 1, z: 0}
    second:
      serializedVersion: 2
      m_TileIndex: 0
      m_TileSpriteIndex: 0
      m_TileMatrixIndex: 0
      m_TileColorIndex: 0
      m_TileObjectToInstantiateIndex: 65535
      dummyAlignment: 0
      m_AllTileFlags: 1073741825
  - first: {x: 0, y: 1, z: 0}
    second:
      serializedVersion: 2
      m_TileIndex: 1
      m_TileSpriteIndex: 1
      m_TileMatrixIndex: 0
      m_TileColorIndex: 0
      m_TileObjectToInstantiateIndex: 65535
      dummyAlignment: 0
      m_AllTileFlags: 1073741825
  - first: {x: 1, y: 1, z: 0}
    second:
      serializedVersion: 2
      m_TileIndex: 2
      m_TileSpriteIndex: 2
      m_TileMatrixIndex: 0
      m_TileColorIndex: 0
      m_TileObjectToInstantiateIndex: 65535
      dummyAlignment: 0
      m_AllTileFlags: 1073741825
  - first: {x: 2, y: 1, z: 0}
    second:
      serializedVersion: 2
      m_TileIndex: 3
      m_TileSpriteIndex: 3
      m_TileMatrixIndex: 0
      m_TileColorIndex: 0
      m_TileObjectToInstantiateIndex: 65535
      dummyAlignment: 0
      m_AllTileFlags: 1073741825
  - first: {x: 3, y: 1, z: 0}
    second:
      serializedVersion: 2
      m_TileIndex: 4
      m_TileSpriteIndex: 4
      m_TileMatrixIndex: 0
      m_TileColorIndex: 0
      m_TileObjectToInstantiateIndex: 65535
      dummyAlignment: 0
      m_AllTileFlags: 1073741825
  m_AnimatedTiles: {}
  m_TileAssetArray:
  - m_RefCount: 1
    m_Data: {fileID: 11400000, guid: 3ed5b79afa0195b4693a0883882cf634, type: 2}
  - m_RefCount: 1
    m_Data: {fileID: 11400000, guid: 84a714841f514d34c838d236482ed2b3, type: 2}
  - m_RefCount: 1
    m_Data: {fileID: 11400000, guid: a89fb0d7c48148e4298e6fd55495e600, type: 2}
  - m_RefCount: 1
    m_Data: {fileID: 11400000, guid: 8e730733a30b7a54bb7e617fdf3e712e, type: 2}
  - m_RefCount: 1
    m_Data: {fileID: 11400000, guid: d334d9f1d9bfebb478f1e305633872ad, type: 2}
  - m_RefCount: 1
    m_Data: {fileID: 11400000, guid: c5da3a79a56ab6144953e95207f492bf, type: 2}
  - m_RefCount: 1
    m_Data: {fileID: 11400000, guid: 59b3cd5ad2a8ff54190e7e2e551d7ecf, type: 2}
  - m_RefCount: 1
    m_Data: {fileID: 11400000, guid: dfc4079905ce4794abe16f3ee184e316, type: 2}
  - m_RefCount: 1
    m_Data: {fileID: 11400000, guid: 9ef610c2721f58d4cbb0355b9e420c94, type: 2}
  - m_RefCount: 1
    m_Data: {fileID: 11400000, guid: 4b444945e66d1ab43a0d1df43fc4374b, type: 2}
  - m_RefCount: 1
    m_Data: {fileID: 11400000, guid: b0e386aa649813243a111568d2ad8c6b, type: 2}
  - m_RefCount: 1
    m_Data: {fileID: 11400000, guid: cb82295975cc8fe4f813a1a3e5737cfc, type: 2}
  - m_RefCount: 1
    m_Data: {fileID: 11400000, guid: da259e56d6ea5f444864d3a38715d893, type: 2}
  - m_RefCount: 1
    m_Data: {fileID: 11400000, guid: f48a64dafd6f707419c8241bc74c38e5, type: 2}
  - m_RefCount: 1
    m_Data: {fileID: 11400000, guid: 2768709976335284e97450816145c2b0, type: 2}
  - m_RefCount: 1
    m_Data: {fileID: 11400000, guid: 787e83193ea0dbd42a4af9bbf47e469d, type: 2}
  - m_RefCount: 1
    m_Data: {fileID: 11400000, guid: 786b2f223b0837044b6c46569b156782, type: 2}
  - m_RefCount: 1
    m_Data: {fileID: 11400000, guid: 88e3071be815ae74daf3bdb568b531d1, type: 2}
  - m_RefCount: 1
    m_Data: {fileID: 11400000, guid: 67f40dfe13a122f41bb4ee5045c4395f, type: 2}
  - m_RefCount: 1
    m_Data: {fileID: 11400000, guid: d0681904a2a864d49a6ca19eac5e6f3f, type: 2}
  - m_RefCount: 1
    m_Data: {fileID: 11400000, guid: b0697b00cc5747d48afb644704d29267, type: 2}
  - m_RefCount: 1
    m_Data: {fileID: 11400000, guid: 9fe87eb42ac731547ac0ecbb4f4a6c21, type: 2}
  - m_RefCount: 1
    m_Data: {fileID: 11400000, guid: 3c2117d993b7eeb47ac9d3e09e6ef4b9, type: 2}
  m_TileSpriteArray:
  - m_RefCount: 1
    m_Data: {fileID: 21300000, guid: d2e5333787caeaf4ebffc05559c3d256, type: 3}
  - m_RefCount: 1
    m_Data: {fileID: 21300000, guid: b0fabf9bb2d1c5c4ab33252072ce8919, type: 3}
  - m_RefCount: 1
    m_Data: {fileID: 21300000, guid: f49938fd5e962834d80abcc368229c65, type: 3}
  - m_RefCount: 1
    m_Data: {fileID: 21300000, guid: 0e046149a23c8604189ebedb79436c9d, type: 3}
  - m_RefCount: 1
    m_Data: {fileID: 21300000, guid: 4c563e929510fb542b59840d133aa24d, type: 3}
  - m_RefCount: 1
    m_Data: {fileID: 21300000, guid: 13a295e9d3e7cee4dbc0d43988478b6d, type: 3}
  - m_RefCount: 1
    m_Data: {fileID: 21300000, guid: b18cc5ea85fc62740aea736cbf271b00, type: 3}
  - m_RefCount: 1
    m_Data: {fileID: 21300000, guid: e5977bf53b642514b9e120b34ce13480, type: 3}
  - m_RefCount: 1
    m_Data: {fileID: 21300000, guid: 152b2b65b59347340bb65094f8e846a6, type: 3}
  - m_RefCount: 1
    m_Data: {fileID: 21300000, guid: 6c8758634bc2a704d91737a0480258bf, type: 3}
  - m_RefCount: 1
    m_Data: {fileID: 21300000, guid: 244d59731ee2a984ebb854f847d30cab, type: 3}
  - m_RefCount: 1
    m_Data: {fileID: 21300000, guid: 4116ffbebb8ddd644aba5912193e0239, type: 3}
  - m_RefCount: 1
    m_Data: {fileID: 21300000, guid: 2490eadba64dad743bbd12698078ed3e, type: 3}
  - m_RefCount: 1
    m_Data: {fileID: 21300000, guid: 2abe0c6884fe6d54490c02fe31cb3bbe, type: 3}
  - m_RefCount: 1
    m_Data: {fileID: 21300000, guid: a38077da8ace4b8448295159bdbfa350, type: 3}
  - m_RefCount: 1
    m_Data: {fileID: 21300000, guid: 086002ad15a2a5242a7bfbac33353fa9, type: 3}
  - m_RefCount: 1
    m_Data: {fileID: 21300000, guid: 1d3ca053d9823694ea8522c83c69f62e, type: 3}
  - m_RefCount: 1
    m_Data: {fileID: 21300000, guid: 78af1c8a65976ce47935d6b852c4f37b, type: 3}
  - m_RefCount: 1
    m_Data: {fileID: 21300000, guid: b3877fb12bc2b2741b4e74a6f9540378, type: 3}
  - m_RefCount: 1
    m_Data: {fileID: 21300000, guid: 4a9cb17f4295c514592d7996bca929dc, type: 3}
  - m_RefCount: 1
    m_Data: {fileID: 21300000, guid: 17e12354edd794c4c999ea492cb577c4, type: 3}
  - m_RefCount: 1
    m_Data: {fileID: 21300000, guid: 4e78236c1a8223e48862222a09aedd8d, type: 3}
  - m_RefCount: 1
    m_Data: {fileID: 21300000, guid: 1051a7b99ed61a449a2c4701a522121d, type: 3}
  m_TileMatrixArray:
  - m_RefCount: 23
    m_Data:
      e00: 1
      e01: 0
      e02: 0
      e03: 0
      e10: 0
      e11: 1
      e12: 0
      e13: 0
      e20: 0
      e21: 0
      e22: 1
      e23: 0
      e30: 0
      e31: 0
      e32: 0
      e33: 1
  m_TileColorArray:
  - m_RefCount: 23
    m_Data: {r: 1, g: 1, b: 1, a: 1}
  m_TileObjectToInstantiateArray: []
  m_AnimationFrameRate: 1
  m_Color: {r: 1, g: 1, b: 1, a: 1}
  m_Origin: {x: -1, y: -3, z: 0}
  m_Size: {x: 5, y: 5, z: 1}
  m_TileAnchor: {x: 0.5, y: 0.5, z: 0}
  m_TileOrientation: 0
  m_TileOrientationMatrix:
    e00: 1
    e01: 0
    e02: 0
    e03: 0
    e10: 0
    e11: 1
    e12: 0
    e13: 0
    e20: 0
    e21: 0
    e22: 1
    e23: 0
    e30: 0
    e31: 0
    e32: 0
    e33: 1
--- !u!483693784 &8647937160516951786
TilemapRenderer:
  m_ObjectHideFlags: 0
  m_CorrespondingSourceObject: {fileID: 0}
  m_PrefabInstance: {fileID: 0}
  m_PrefabAsset: {fileID: 0}
  m_GameObject: {fileID: 3874237924094853825}
  m_Enabled: 1
  m_CastShadows: 0
  m_ReceiveShadows: 0
  m_DynamicOccludee: 0
  m_MotionVectors: 1
  m_LightProbeUsage: 0
  m_ReflectionProbeUsage: 0
  m_RayTracingMode: 0
  m_RayTraceProcedural: 0
  m_RenderingLayerMask: 1
  m_RendererPriority: 0
  m_Materials:
  - {fileID: 10754, guid: 0000000000000000f000000000000000, type: 0}
  m_StaticBatchInfo:
    firstSubMesh: 0
    subMeshCount: 0
  m_StaticBatchRoot: {fileID: 0}
  m_ProbeAnchor: {fileID: 0}
  m_LightProbeVolumeOverride: {fileID: 0}
  m_ScaleInLightmap: 1
  m_ReceiveGI: 1
  m_PreserveUVs: 0
  m_IgnoreNormalsForChartDetection: 0
  m_ImportantGI: 0
  m_StitchLightmapSeams: 1
  m_SelectedEditorRenderState: 0
  m_MinimumChartSize: 4
  m_AutoUVMaxDistance: 0.5
  m_AutoUVMaxAngle: 89
  m_LightmapParameters: {fileID: 0}
  m_SortingLayerID: 0
  m_SortingLayer: 0
  m_SortingOrder: 0
  m_ChunkSize: {x: 32, y: 32, z: 32}
  m_ChunkCullingBounds: {x: 0, y: 0, z: 0}
  m_MaxChunkCount: 16
  m_MaxFrameAge: 16
  m_SortOrder: 0
  m_Mode: 0
  m_DetectChunkCullingBounds: 0
  m_MaskInteraction: 0
--- !u!1 &7660883372038160286
GameObject:
  m_ObjectHideFlags: 0
  m_CorrespondingSourceObject: {fileID: 0}
  m_PrefabInstance: {fileID: 0}
  m_PrefabAsset: {fileID: 0}
  serializedVersion: 6
  m_Component:
  - component: {fileID: 10648974948151187}
  - component: {fileID: 6654863643775482915}
  m_Layer: 31
  m_Name: Paleta
  m_TagString: Untagged
  m_Icon: {fileID: 0}
  m_NavMeshLayer: 0
  m_StaticEditorFlags: 0
  m_IsActive: 1
--- !u!4 &10648974948151187
Transform:
  m_ObjectHideFlags: 0
  m_CorrespondingSourceObject: {fileID: 0}
  m_PrefabInstance: {fileID: 0}
  m_PrefabAsset: {fileID: 0}
  m_GameObject: {fileID: 7660883372038160286}
  m_LocalRotation: {x: 0, y: 0, z: 0, w: 1}
  m_LocalPosition: {x: 0, y: 0, z: 0}
  m_LocalScale: {x: 1, y: 1, z: 1}
  m_Children:
  - {fileID: 273747347691911357}
  m_Father: {fileID: 0}
  m_RootOrder: 0
  m_LocalEulerAnglesHint: {x: 0, y: 0, z: 0}
--- !u!156049354 &6654863643775482915
Grid:
  m_ObjectHideFlags: 0
  m_CorrespondingSourceObject: {fileID: 0}
  m_PrefabInstance: {fileID: 0}
  m_PrefabAsset: {fileID: 0}
  m_GameObject: {fileID: 7660883372038160286}
  m_Enabled: 1
  m_CellSize: {x: 1, y: 1, z: 0}
  m_CellGap: {x: 0, y: 0, z: 0}
  m_CellLayout: 0
  m_CellSwizzle: 0
--- !u!114 &6312085322478322897
MonoBehaviour:
  m_ObjectHideFlags: 0
  m_CorrespondingSourceObject: {fileID: 0}
  m_PrefabInstance: {fileID: 0}
  m_PrefabAsset: {fileID: 0}
  m_GameObject: {fileID: 0}
  m_Enabled: 1
  m_EditorHideFlags: 0
  m_Script: {fileID: 12395, guid: 0000000000000000e000000000000000, type: 0}
  m_Name: Palette Settings
  m_EditorClassIdentifier: 
  cellSizing: 0
  m_TransparencySortMode: 0
  m_TransparencySortAxis: {x: 0, y: 0, z: 1}
